<?xml version="1.0" standalone="no"?>
<!DOCTYPE svg PUBLIC "-//W3C//DTD SVG 20010904//EN"
 "http://www.w3.org/TR/2001/REC-SVG-20010904/DTD/svg10.dtd">
<svg version="1.0" xmlns="http://www.w3.org/2000/svg"
 width="500.000000pt" height="500.000000pt" viewBox="0 0 500.000000 500.000000"
 preserveAspectRatio="xMidYMid meet">
<metadata>
Created by potrace 1.11, written by Peter Selinger 2001-2013
</metadata>
<g transform="translate(0.000000,500.000000) scale(0.100000,-0.100000)"
fill="#000000" stroke="none">
<path d="M0 4112 l0 -137 376 0 c243 0 378 -3 383 -10 4 -5 114 -298 246 -650
131 -352 241 -643 244 -647 3 -4 6 287 6 647 -1 445 3 656 10 658 9 3 723 1
735 -2 3 0 5 -667 5 -1481 l0 -1480 -395 0 -395 0 -97 283 c-53 155 -138 401
-188 547 -51 146 -108 313 -128 373 -20 59 -39 107 -42 107 -3 0 -5 -295 -5
-655 l0 -655 -377 0 -378 0 0 -130 0 -130 2500 0 2500 0 0 1310 0 1310 -40 0
c-22 1 -123 1 -225 1 -102 0 -200 0 -218 -1 l-34 0 -1 -1172 c0 -645 -1 -1179
-1 -1185 -1 -10 -97 -13 -446 -13 -417 0 -445 1 -445 18 -1 9 -1 542 -1 1185
-1 880 -4 1167 -12 1167 -7 1 -126 1 -264 1 l-253 1 -1 27 c-4 155 -3 536 2
549 6 16 69 17 970 17 l964 0 3 143 3 142 -2501 0 -2500 0 0 -138z m2980
-1323 l0 -1186 263 -1 c144 0 267 -1 272 -1 7 -1 11 -99 11 -296 l-1 -295
-720 0 -720 0 1 1478 c1 812 2 1479 3 1482 0 3 201 5 446 5 l445 0 0 -1186z"/>
</g>
</svg>
